herokuapp/steps/EmployeeManagementSteps.class
herokuapp/pages/BasePage.class
herokuapp/pages/LoginPage.class
herokuapp/requirements/Application$Authentication.class
herokuapp/constants/CafeTownsendConsts.class
herokuapp/tests/BaseTest.class
herokuapp/requirements/Application.class
herokuapp/dtos/EmployeeDTO.class
herokuapp/pages/EmployeesPage.class
herokuapp/requirements/Application$CreateAndModifyEmployee.class
herokuapp/tests/cafetownsend/CreateAndModifyEmployeeTest.class
herokuapp/tests/cafetownsend/LoginTest.class
herokuapp/tests/cafetownsend/LogoutTest.class
